UK HPI - model to predict the sales volume per month in the UK
…
lag_12_sales_volume
double , numeric
predictor
derived

Then, I use the bake() function to apply the recipe to the data frame.

my_recip %>% 
    bake(df_uk_train) %>% 
    arrange(date)

# A tibble: 168 × 15
   date       region         sales_volume lag_1_sales_volume lag_2_sales_volume
   <date>     <fct>                 <dbl>              <dbl>              <dbl>
 1 2006-01-01 United Kingdom       88382             122222.            111610.
 2 2006-02-01 United Kingdom       90058              88382             122222.
 3 2006-03-01 United Kingdom      118864              90058              88382 
 4 2006-04-01 United Kingdom      110370             118864              90058 
 5 2006-05-01 United Kingdom      121888             110370             118864 
 6 2006-06-01 United Kingdom      146253             121888             110370 
 7 2006-07-01 United Kingdom      134426.            146253             121888 
 8 2006-08-01 United Kingdom      141486.            134426.            146253 
 9 2006-09-01 United Kingdom      137213.            141486.            134426.
10 2006-10-01 United Kingdom      133356.            137213.            141486.
# ℹ 158 more rows
# ℹ 10 more variables: lag_3_sales_volume <dbl>, lag_4_sales_volume <dbl>,
#   lag_5_sales_volume <dbl>, lag_6_sales_volume <dbl>,
#   lag_7_sales_volume <dbl>, lag_8_sales_volume <dbl>,
#   lag_9_sales_volume <dbl>, lag_10_sales_volume <dbl>,
#   lag_11_sales_volume <dbl>, lag_12_sales_volume <dbl>
…
For df_uk_test :

Pre-processing: To create a linear model, I am using tidymodels. However, firstly, I would like to further preprocess df_uk_test by dropping the rows with NA values.

df_uk_test <-
    df_uk_test %>%
    drop_na(sales_volume)

Apply the recipe: I use the bake() function to apply the recipe I created to the uk_test data frame.

my_recip %>% 
    bake(df_uk_test) %>% 
    arrange(date)

# A tibble: 28 × 15
   date       region         sales_volume lag_1_sales_volume lag_2_sales_volume
   <date>     <fct>                 <dbl>              <dbl>              <dbl>
 1 2021-01-01 United Kingdom       78289             104608.             96254.
 2 2021-02-01 United Kingdom       96081              78289             104608.
 3 2021-03-01 United Kingdom      135666              96081              78289 
 4 2021-04-01 United Kingdom       87611             135666              96081 
 5 2021-05-01 United Kingdom       78518              87611             135666 
 6 2021-06-01 United Kingdom      165290              78518              87611 
 7 2021-07-01 United Kingdom       64027.            165290              78518 
 8 2021-08-01 United Kingdom       80854.             64027.            165290 
 9 2021-09-01 United Kingdom      129270.             80854.             64027.
10 2021-10-01 United Kingdom       64254.            129270.             80854.
# ℹ 18 more rows
# ℹ 10 more variables: lag_3_sales_volume <dbl>, lag_4_sales_volume <dbl>,
#   lag_5_sales_volume <dbl>, lag_6_sales_volume <dbl>,
#   lag_7_sales_volume <dbl>, lag_8_sales_volume <dbl>,
#   lag_9_sales_volume <dbl>, lag_10_sales_volume <dbl>,
#   lag_11_sales_volume <dbl>, lag_12_sales_volume <dbl>
…
